[gd_scene load_steps=17 format=2]

[ext_resource path="res://assets/tile/tileset-outdoor.tres" type="TileSet" id=1]
[ext_resource path="res://_scenes/graph_garden.tscn" type="PackedScene" id=2]
[ext_resource path="res://_scenes/guard.tscn" type="PackedScene" id=3]
[ext_resource path="res://_scripts/squad.gd" type="Script" id=4]
[ext_resource path="res://_scenes/fsm_squad.tscn" type="PackedScene" id=5]
[ext_resource path="res://_scenes/player.tscn" type="PackedScene" id=6]
[ext_resource path="res://assets/sprites/column.png" type="Texture" id=8]
[ext_resource path="res://assets/sprites/fountain/fountain0000.png" type="Texture" id=9]
[ext_resource path="res://assets/sprites/fountain/fountain0001.png" type="Texture" id=10]

[sub_resource type="CapsuleShape2D" id=1]
radius = 75.0
height = 100.0

[sub_resource type="NavigationPolygon" id=2]
vertices = PoolVector2Array( -150, -150, 150, -150, 150, 150, -150, 150 )
polygons = [ PoolIntArray( 0, 1, 2, 3 ) ]
outlines = [ PoolVector2Array( -150, -150, 150, -150, 150, 150, -150, 150 ) ]

[sub_resource type="OccluderPolygon2D" id=3]
polygon = PoolVector2Array( -75, 0, -50, -25, 50, -25, 75, 0, 50, 50, -50, 50 )

[sub_resource type="SpriteFrames" id=4]
animations = [ {
"frames": [  ],
"loop": true,
"name": "default",
"speed": 5.0
}, {
"frames": [ ExtResource( 9 ), ExtResource( 10 ) ],
"loop": true,
"name": "New Anim",
"speed": 2.0
} ]

[sub_resource type="CapsuleShape2D" id=5]
radius = 50.0
height = 50.0

[sub_resource type="NavigationPolygon" id=6]
vertices = PoolVector2Array( -100, -100, 100, -100, 100, 100, -100, 100 )
polygons = [ PoolIntArray( 0, 1, 2, 3 ) ]
outlines = [ PoolVector2Array( -100, -100, 100, -100, 100, 100, -100, 100 ) ]

[sub_resource type="OccluderPolygon2D" id=7]
cull_mode = 1
polygon = PoolVector2Array( -50, -75, 50, -75, 25, -25, 25, 50, 0, 75, -25, 50, -25, -25 )

[node name="garden" type="Node2D"]

[node name="YSort" type="YSort" parent="."]

[node name="Navigation2D" type="Navigation2D" parent="YSort"]

[node name="TileMap" type="TileMap" parent="YSort/Navigation2D"]
tile_set = ExtResource( 1 )
cell_size = Vector2( 100, 100 )
cell_quadrant_size = 25
collision_layer = 2
collision_mask = 2
format = 1
tile_data = PoolIntArray( -196605, 3, 0, -196604, 3, 0, -196603, 3, 0, -196602, 3, 0, -196601, 3, 0, -65541, 3, 0, -65540, 3, 0, -65539, 3, 0, -65538, 3, 0, -65537, 3, 0, -131072, 3, 0, -131071, 3, 0, -131070, 3, 0, -131069, 3, 0, -131068, 0, 0, -131067, 0, 0, -131066, 0, 0, -131065, 3, 0, -131064, 3, 0, -131063, 3, 0, -131062, 3, 0, -131061, 3, 0, -131060, 3, 0, -131059, 3, 0, -131058, 3, 0, -131057, 3, 0, -5, 3, 0, -4, 3, 0, -3, 3, 0, -2, 3, 0, -1, 3, 0, -65536, 3, 0, -65535, 3, 0, -65534, 3, 0, -65533, 3, 0, -65532, 0, 0, -65531, 0, 0, -65530, 0, 0, -65529, 3, 0, -65528, 3, 0, -65527, 3, 0, -65526, 3, 0, -65525, 3, 0, -65524, 3, 0, -65523, 3, 0, -65522, 3, 0, -65521, 3, 0, 65531, 3, 0, 65532, 3, 0, 65533, 1, 0, 65534, 1, 0, 65535, 1, 0, 0, 1, 0, 1, 1, 0, 2, 1, 0, 3, 1, 0, 4, 0, 0, 5, 0, 0, 6, 0, 0, 7, 1, 0, 8, 1, 0, 9, 1, 0, 10, 1, 0, 11, 1, 0, 12, 1, 0, 13, 1, 0, 14, 3, 0, 15, 3, 0, 131067, 3, 0, 131068, 3, 0, 131069, 1, 0, 131070, 0, 0, 131071, 0, 0, 65536, 0, 0, 65537, 0, 0, 65538, 0, 0, 65539, 0, 0, 65540, 0, 0, 65541, 0, 0, 65542, 0, 0, 65543, 0, 0, 65544, 0, 0, 65545, 0, 0, 65546, 0, 0, 65547, 0, 0, 65548, 0, 0, 65549, 1, 0, 65550, 3, 0, 65551, 3, 0, 196603, 3, 0, 196604, 3, 0, 196605, 1, 0, 196606, 0, 0, 196607, 0, 0, 131072, 0, 0, 131073, 0, 0, 131074, 0, 0, 131075, 0, 0, 131076, 0, 0, 131077, 0, 0, 131078, 0, 0, 131079, 0, 0, 131080, 0, 0, 131081, 0, 0, 131082, 0, 0, 131083, 0, 0, 131084, 0, 0, 131085, 1, 0, 131086, 3, 0, 131087, 3, 0, 262139, 3, 0, 262140, 3, 0, 262141, 1, 0, 262142, 0, 0, 262143, 0, 0, 196608, 4, 0, 196609, 4, 0, 196610, 1, 0, 196611, 1, 0, 196612, 0, 0, 196613, 0, 0, 196614, 0, 0, 196615, 1, 0, 196616, 1, 0, 196617, 4, 0, 196618, 4, 0, 196619, 0, 0, 196620, 0, 0, 196621, 1, 0, 196622, 3, 0, 196623, 3, 0, 327675, 3, 0, 327676, 3, 0, 327677, 1, 0, 327678, 0, 0, 327679, 0, 0, 262144, 4, 0, 262145, 4, 0, 262146, 1, 0, 262147, 1, 0, 262148, 0, 0, 262149, 0, 0, 262150, 0, 0, 262151, 1, 0, 262152, 1, 0, 262153, 4, 0, 262154, 4, 0, 262155, 0, 0, 262156, 0, 0, 262157, 1, 0, 262158, 3, 0, 262159, 3, 0, 393211, 3, 0, 393212, 3, 0, 393213, 1, 0, 393214, 0, 0, 393215, 0, 0, 327680, 1, 0, 327681, 1, 0, 327682, 0, 0, 327683, 0, 0, 327684, 0, 0, 327685, 0, 0, 327686, 0, 0, 327687, 0, 0, 327688, 0, 0, 327689, 1, 0, 327690, 1, 0, 327691, 0, 0, 327692, 0, 0, 327693, 1, 0, 327694, 3, 0, 327695, 3, 0, 458747, 3, 0, 458748, 3, 0, 458749, 1, 0, 458750, 0, 0, 458751, 0, 0, 393216, 1, 0, 393217, 1, 0, 393218, 0, 0, 393219, 0, 0, 393220, 0, 0, 393221, 0, 0, 393222, 0, 0, 393223, 0, 0, 393224, 0, 0, 393225, 1, 0, 393226, 1, 0, 393227, 0, 0, 393228, 0, 0, 393229, 1, 0, 393230, 3, 0, 393231, 3, 0, 524283, 3, 0, 524284, 3, 0, 524285, 1, 0, 524286, 0, 0, 524287, 0, 0, 458752, 0, 0, 458753, 0, 0, 458754, 0, 0, 458755, 0, 0, 458756, 4, 0, 458757, 4, 0, 458758, 4, 0, 458759, 0, 0, 458760, 0, 0, 458761, 0, 0, 458762, 0, 0, 458763, 0, 0, 458764, 0, 0, 458765, 1, 0, 458766, 3, 0, 458767, 3, 0, 589819, 3, 0, 589820, 3, 0, 589821, 1, 0, 589822, 0, 0, 589823, 0, 0, 524288, 0, 0, 524289, 0, 0, 524290, 0, 0, 524291, 0, 0, 524292, 4, 0, 524293, 4, 0, 524294, 4, 0, 524295, 0, 0, 524296, 0, 0, 524297, 0, 0, 524298, 0, 0, 524299, 0, 0, 524300, 0, 0, 524301, 1, 0, 524302, 3, 0, 524303, 3, 0, 655355, 3, 0, 655356, 3, 0, 655357, 1, 0, 655358, 0, 0, 655359, 0, 0, 589824, 0, 0, 589825, 0, 0, 589826, 0, 0, 589827, 0, 0, 589828, 4, 0, 589829, 4, 0, 589830, 4, 0, 589831, 0, 0, 589832, 0, 0, 589833, 0, 0, 589834, 0, 0, 589835, 0, 0, 589836, 0, 0, 589837, 1, 0, 589838, 3, 0, 589839, 3, 0, 720891, 3, 0, 720892, 3, 0, 720893, 1, 0, 720894, 0, 0, 720895, 0, 0, 655360, 1, 0, 655361, 1, 0, 655362, 0, 0, 655363, 0, 0, 655364, 0, 0, 655365, 0, 0, 655366, 0, 0, 655367, 0, 0, 655368, 0, 0, 655369, 1, 0, 655370, 1, 0, 655371, 0, 0, 655372, 0, 0, 655373, 1, 0, 655374, 3, 0, 655375, 3, 0, 786427, 3, 0, 786428, 3, 0, 786429, 1, 0, 786430, 0, 0, 786431, 0, 0, 720896, 1, 0, 720897, 1, 0, 720898, 0, 0, 720899, 0, 0, 720900, 0, 0, 720901, 0, 0, 720902, 0, 0, 720903, 0, 0, 720904, 0, 0, 720905, 1, 0, 720906, 1, 0, 720907, 0, 0, 720908, 0, 0, 720909, 1, 0, 720910, 3, 0, 720911, 3, 0, 851963, 3, 0, 851964, 3, 0, 851965, 1, 0, 851966, 0, 0, 851967, 0, 0, 786432, 4, 0, 786433, 4, 0, 786434, 1, 0, 786435, 1, 0, 786436, 0, 0, 786437, 0, 0, 786438, 0, 0, 786439, 1, 0, 786440, 1, 0, 786441, 4, 0, 786442, 4, 0, 786443, 0, 0, 786444, 0, 0, 786445, 1, 0, 786446, 3, 0, 786447, 3, 0, 917499, 3, 0, 917500, 3, 0, 917501, 1, 0, 917502, 0, 0, 917503, 0, 0, 851968, 4, 0, 851969, 4, 0, 851970, 1, 0, 851971, 1, 0, 851972, 0, 0, 851973, 0, 0, 851974, 0, 0, 851975, 1, 0, 851976, 1, 0, 851977, 4, 0, 851978, 4, 0, 851979, 0, 0, 851980, 0, 0, 851981, 1, 0, 851982, 3, 0, 851983, 3, 0, 983035, 3, 0, 983036, 3, 0, 983037, 1, 0, 983038, 0, 0, 983039, 0, 0, 917504, 0, 0, 917505, 0, 0, 917506, 0, 0, 917507, 0, 0, 917508, 0, 0, 917509, 0, 0, 917510, 0, 0, 917511, 0, 0, 917512, 0, 0, 917513, 0, 0, 917514, 0, 0, 917515, 0, 0, 917516, 0, 0, 917517, 1, 0, 917518, 3, 0, 917519, 3, 0, 1048571, 3, 0, 1048572, 3, 0, 1048573, 1, 0, 1048574, 0, 0, 1048575, 0, 0, 983040, 0, 0, 983041, 0, 0, 983042, 0, 0, 983043, 0, 0, 983044, 0, 0, 983045, 0, 0, 983046, 0, 0, 983047, 0, 0, 983048, 0, 0, 983049, 0, 0, 983050, 0, 0, 983051, 0, 0, 983052, 0, 0, 983053, 1, 0, 983054, 3, 0, 983055, 3, 0, 1114107, 3, 0, 1114108, 3, 0, 1114109, 1, 0, 1114110, 1, 0, 1114111, 1, 0, 1048576, 1, 0, 1048577, 1, 0, 1048578, 1, 0, 1048579, 1, 0, 1048580, 0, 0, 1048581, 0, 0, 1048582, 0, 0, 1048583, 1, 0, 1048584, 1, 0, 1048585, 1, 0, 1048586, 1, 0, 1048587, 1, 0, 1048588, 1, 0, 1048589, 1, 0, 1048590, 3, 0, 1048591, 3, 0, 1179643, 3, 0, 1179644, 3, 0, 1179645, 3, 0, 1179646, 3, 0, 1179647, 3, 0, 1114112, 3, 0, 1114113, 3, 0, 1114114, 3, 0, 1114115, 3, 0, 1114116, 0, 0, 1114117, 0, 0, 1114118, 0, 0, 1114119, 3, 0, 1114120, 3, 0, 1114121, 3, 0, 1114122, 3, 0, 1114123, 3, 0, 1114124, 3, 0, 1114125, 3, 0, 1114126, 3, 0, 1114127, 3, 0, 1245179, 3, 0, 1245180, 3, 0, 1245181, 3, 0, 1245182, 3, 0, 1245183, 3, 0, 1179648, 3, 0, 1179649, 3, 0, 1179650, 3, 0, 1179651, 3, 0, 1179652, 0, 0, 1179653, 0, 0, 1179654, 0, 0, 1179655, 3, 0, 1179656, 3, 0, 1179657, 3, 0, 1179658, 3, 0, 1179659, 3, 0, 1179660, 3, 0, 1179661, 3, 0, 1179662, 3, 0, 1179663, 3, 0, 1245187, 3, 0, 1245188, 3, 0, 1245189, 3, 0, 1245190, 3, 0, 1245191, 3, 0 )

[node name="fountain" type="StaticBody2D" parent="YSort/Navigation2D"]
modulate = Color( 0.74902, 0.74902, 0.74902, 1 )
position = Vector2( 550, 850 )
collision_layer = 2
collision_mask = 3
__meta__ = {
"_edit_group_": true
}

[node name="CollisionShape2D" type="CollisionShape2D" parent="YSort/Navigation2D/fountain"]
position = Vector2( 0, 25 )
rotation = 1.5708
shape = SubResource( 1 )

[node name="NavigationPolygonInstance" type="NavigationPolygonInstance" parent="YSort/Navigation2D/fountain"]
navpoly = SubResource( 2 )
enabled = false

[node name="LightOccluder2D" type="LightOccluder2D" parent="YSort/Navigation2D/fountain"]
occluder = SubResource( 3 )

[node name="AnimatedSprite" type="AnimatedSprite" parent="YSort/Navigation2D/fountain"]
frames = SubResource( 4 )
animation = "New Anim"
frame = 1
playing = true

[node name="column1" type="StaticBody2D" parent="YSort/Navigation2D"]
modulate = Color( 0.74902, 0.74902, 0.74902, 1 )
position = Vector2( 100, 1250 )
collision_layer = 2
collision_mask = 3
__meta__ = {
"_edit_group_": true
}

[node name="Sprite" type="Sprite" parent="YSort/Navigation2D/column1"]
texture = ExtResource( 8 )

[node name="CollisionShape2D" type="CollisionShape2D" parent="YSort/Navigation2D/column1"]
position = Vector2( 0, 25 )
shape = SubResource( 5 )

[node name="NavigationPolygonInstance" type="NavigationPolygonInstance" parent="YSort/Navigation2D/column1"]
navpoly = SubResource( 6 )

[node name="LightOccluder2D" type="LightOccluder2D" parent="YSort/Navigation2D/column1"]
occluder = SubResource( 7 )

[node name="column2" type="StaticBody2D" parent="YSort/Navigation2D"]
modulate = Color( 0.74902, 0.74902, 0.74902, 1 )
position = Vector2( 1000, 350 )
collision_layer = 2
collision_mask = 3
__meta__ = {
"_edit_group_": true
}

[node name="Sprite" type="Sprite" parent="YSort/Navigation2D/column2"]
texture = ExtResource( 8 )

[node name="CollisionShape2D" type="CollisionShape2D" parent="YSort/Navigation2D/column2"]
position = Vector2( 0, 25 )
shape = SubResource( 5 )

[node name="NavigationPolygonInstance" type="NavigationPolygonInstance" parent="YSort/Navigation2D/column2"]
navpoly = SubResource( 6 )

[node name="LightOccluder2D" type="LightOccluder2D" parent="YSort/Navigation2D/column2"]
occluder = SubResource( 7 )

[node name="column3" type="StaticBody2D" parent="YSort/Navigation2D"]
modulate = Color( 0.74902, 0.74902, 0.74902, 1 )
position = Vector2( 100, 350 )
collision_layer = 2
collision_mask = 3
__meta__ = {
"_edit_group_": true
}

[node name="Sprite" type="Sprite" parent="YSort/Navigation2D/column3"]
texture = ExtResource( 8 )

[node name="CollisionShape2D" type="CollisionShape2D" parent="YSort/Navigation2D/column3"]
position = Vector2( 0, 25 )
shape = SubResource( 5 )

[node name="NavigationPolygonInstance" type="NavigationPolygonInstance" parent="YSort/Navigation2D/column3"]
navpoly = SubResource( 6 )

[node name="LightOccluder2D" type="LightOccluder2D" parent="YSort/Navigation2D/column3"]
occluder = SubResource( 7 )

[node name="column4" type="StaticBody2D" parent="YSort/Navigation2D"]
modulate = Color( 0.74902, 0.74902, 0.74902, 1 )
position = Vector2( 1000, 1275 )
collision_layer = 2
collision_mask = 3
__meta__ = {
"_edit_group_": true
}

[node name="Sprite" type="Sprite" parent="YSort/Navigation2D/column4"]
texture = ExtResource( 8 )

[node name="CollisionShape2D" type="CollisionShape2D" parent="YSort/Navigation2D/column4"]
position = Vector2( 0, 25 )
shape = SubResource( 5 )

[node name="NavigationPolygonInstance" type="NavigationPolygonInstance" parent="YSort/Navigation2D/column4"]
navpoly = SubResource( 6 )

[node name="LightOccluder2D" type="LightOccluder2D" parent="YSort/Navigation2D/column4"]
occluder = SubResource( 7 )

[node name="Camera2D" type="Camera2D" parent="YSort"]
position = Vector2( 550, 850 )
current = true
zoom = Vector2( 2, 2 )

[node name="graph_garden" parent="YSort" instance=ExtResource( 2 )]

[node name="node_exit1" parent="YSort/graph_garden/nodes" index="0"]
position = Vector2( 550, -75 )

[node name="node_exit2" parent="YSort/graph_garden/nodes" index="1"]
position = Vector2( 550, 1800 )

[node name="node_1_1" parent="YSort/graph_garden/nodes" index="2"]
position = Vector2( -100, 200 )

[node name="node_1_2" parent="YSort/graph_garden/nodes" index="3"]
position = Vector2( 550, 200 )

[node name="node_1_3" parent="YSort/graph_garden/nodes" index="4"]
position = Vector2( 1200, 200 )

[node name="node_2_1" parent="YSort/graph_garden/nodes" index="5"]
position = Vector2( 300, 600 )

[node name="node_2_2" parent="YSort/graph_garden/nodes" index="6"]
position = Vector2( 550, 600 )

[node name="node_2_3" parent="YSort/graph_garden/nodes" index="7"]
position = Vector2( 800, 600 )

[node name="node_3_1" parent="YSort/graph_garden/nodes" index="8"]
position = Vector2( -100, 850 )

[node name="node_3_2" parent="YSort/graph_garden/nodes" index="9"]
position = Vector2( 300, 850 )

[node name="node_3_3" parent="YSort/graph_garden/nodes" index="10"]
position = Vector2( 800, 850 )

[node name="node_3_4" parent="YSort/graph_garden/nodes" index="11"]
position = Vector2( 1200, 850 )

[node name="node_4_1" parent="YSort/graph_garden/nodes" index="12"]
position = Vector2( 300, 1100 )

[node name="node_4_2" parent="YSort/graph_garden/nodes" index="13"]
position = Vector2( 550, 1100 )

[node name="node_4_3" parent="YSort/graph_garden/nodes" index="14"]
position = Vector2( 800, 1100 )

[node name="node_5_1" parent="YSort/graph_garden/nodes" index="15"]
position = Vector2( -100, 1500 )

[node name="node_5_2" parent="YSort/graph_garden/nodes" index="16"]
position = Vector2( 550, 1500 )

[node name="node_5_3" parent="YSort/graph_garden/nodes" index="17"]
position = Vector2( 1200, 1500 )

[node name="squad" type="Node2D" parent="YSort"]
script = ExtResource( 4 )

[node name="fsm_squad" parent="YSort/squad" instance=ExtResource( 5 )]

[node name="guards" type="Node" parent="YSort/squad"]

[node name="guard" parent="YSort/squad/guards" groups=[
"guards",
] instance=ExtResource( 3 )]
position = Vector2( 800, 850 )
navigation_path = NodePath("../../../Navigation2D")
graph_path = NodePath("../../../graph_garden")

[node name="guard2" parent="YSort/squad/guards" groups=[
"guards",
] instance=ExtResource( 3 )]
position = Vector2( 300, 850 )
navigation_path = NodePath("../../../Navigation2D")
graph_path = NodePath("../../../graph_garden")

[node name="guard3" parent="YSort/squad/guards" groups=[
"guards",
] instance=ExtResource( 3 )]
position = Vector2( -100, 1500 )
navigation_path = NodePath("../../../Navigation2D")
graph_path = NodePath("../../../graph_garden")

[node name="guard4" parent="YSort/squad/guards" groups=[
"guards",
] instance=ExtResource( 3 )]
position = Vector2( 1200, 200 )
navigation_path = NodePath("../../../Navigation2D")
graph_path = NodePath("../../../graph_garden")

[node name="formation" type="Node2D" parent="YSort/squad"]

[node name="position1" type="Position2D" parent="YSort/squad/formation"]
position = Vector2( 0, 250 )

[node name="position2" type="Position2D" parent="YSort/squad/formation"]
position = Vector2( 0, -250 )

[node name="position3" type="Position2D" parent="YSort/squad/formation"]
position = Vector2( 250, 0 )

[node name="position4" type="Position2D" parent="YSort/squad/formation"]
position = Vector2( -250, 0 )

[node name="Line2D" type="Line2D" parent="YSort"]

[node name="player" parent="YSort" groups=[
"players",
] instance=ExtResource( 6 )]
position = Vector2( 550, 1750 )

[node name="CanvasModulate" type="CanvasModulate" parent="."]
color = Color( 0.27451, 0.27451, 0.411765, 1 )

[editable path="YSort/graph_garden"]
