[gd_scene load_steps=4 format=2]

[ext_resource path="res://_scripts/torch.gd" type="Script" id=1]
[ext_resource path="res://assets/sprites/light.png" type="Texture" id=2]

[sub_resource type="CircleShape2D" id=1]
radius = 301.04

[node name="torch" type="Area2D"]
collision_layer = 4
collision_mask = 4
script = ExtResource( 1 )

[node name="CollisionShape2D" type="CollisionShape2D" parent="."]
shape = SubResource( 1 )

[node name="Light2D" type="Light2D" parent="."]
scale = Vector2( 8, 8 )
texture = ExtResource( 2 )
color = Color( 0.854902, 0.678431, 0.337255, 1 )
shadow_enabled = true

[node name="RayCast2D" type="RayCast2D" parent="."]
enabled = true
collision_mask = 2
[connection signal="body_exited" from="." to="." method="_on_torch_body_exited"]
