[gd_scene load_steps=3 format=2]

[ext_resource path="res://_scripts/templates/fuzzy_set.gd" type="Script" id=1]
[ext_resource path="res://_scenes/templates/fuzzy_variable.tscn" type="PackedScene" id=2]

[node name="fuzzy_variable_direction" instance=ExtResource( 2 )]
min_range = -1.0
max_range = 1.0

[node name="fuzzy_set_front" type="Node" parent="fuzzy_sets" index="0"]
script = ExtResource( 1 )
peak_point = -0.5
left_offset = 0.5
right_offset = 0.5

[node name="fuzzy_set_side" type="Node" parent="fuzzy_sets" index="1"]
script = ExtResource( 1 )
fuzzy_set_type = 1
left_offset = 0.5
right_offset = 0.5

[node name="fuzzy_set_back" type="Node" parent="fuzzy_sets" index="2"]
script = ExtResource( 1 )
fuzzy_set_type = 2
peak_point = 0.5
left_offset = 0.5
right_offset = 0.5
